Methods of Data Science - 10 Visual EDA
…
## We'll need this, but don't want to load it
## install.packages('Hmisc')

theme_set(theme_minimal())

ds_df = datasaurus_dozen

The dataset combines 13 different datasets with \(n=142\) for each

ds_df

# A tibble: 1,846 × 3
   dataset     x     y
   <chr>   <dbl> <dbl>
 1 dino     55.4  97.2
 2 dino     51.5  96.0
 3 dino     46.2  94.5
 4 dino     42.8  91.4
 5 dino     40.8  88.3
 6 dino     38.7  84.9
 7 dino     35.6  79.9
 8 dino     33.1  77.6
 9 dino     29.0  74.5
10 dino     26.2  71.4
# … with 1,836 more rows
…
