Chapter 13 Common (and less common) Graphs for EDA | Data Science Methods for Cognitive Science
…
count(div_df, name)

## # A tibble: 457 x 2
##    name                                               n
##    <chr>                                          <int>
##  1 Academy for Jewish Religion                       11
##  2 Academy of Art University                         11
##  3 Academy of Chinese Culture and Health Sciences    11
##  4 Academy of Couture Art                            11
##  5 Acupuncture and Integrative Medicine College      11
##  6 Advanced College                                  11
##  7 Advanced Computing Institute                      11
##  8 Advanced Training Associates                      11
##  9 Allan Hancock College                             11
## 10 Alliant International University: San Diego       11
## # … with 447 more rows
…
13.4 Joining tuition and diversity data

The other numeric variables in the tuition data are variations on in-state tuition: they add room and board (in_state_total) or tuition for out-of-state tuitions (out_of_state_tuition), or both. For something more interesting, we’ll join the tuition data to the diversity data.

Recall that div_df has one row for each combination of school and demographic group (category).

div_df

## # A tibble: 5,027 x 6
##    name               total_enrollment state     category                         enrollment   share
##    <chr>                         <dbl> <chr>     <chr>                                 <dbl>   <dbl>
##  1 Ashford University            51237 Californ… Women                                 36116 0.705  
##  2 Ashford University            51237 Californ… American Indian / Alaska Native         482 0.00941
##  3 Ashford University            51237 Californ… Asian                                   645 0.0126 
##  4 Ashford University            51237 Californ… Black                                 18727 0.365  
##  5 Ashford University            51237 Californ… Hispanic                               4792 0.0935 
##  6 Ashford University            51237 Californ… Native Hawaiian / Pacific Islan…        405 0.00790
##  7 Ashford University            51237 Californ… White                                 23596 0.461  
##  8 Ashford University            51237 Californ… Two Or More Races                      1539 0.0300 
##  9 Ashford University            51237 Californ… Unknown                                 955 0.0186 
## 10 Ashford University            51237 Californ… Non-Resident Foreign                     96 0.00187
## # … with 5,017 more rows
…
