Chapter 11 Intermediate Visualization in R | Data Science Methods for Cognitive Science
…
Disadvantages of ggplot2

Only\(^*\) for data frames in long format

Programming with ggplot2 requires understanding tidy evaluation

11.2 Plot 1: Dumbbell plot

Hicks, Stahmer, and Smith (2018) figure 2

counts_df = readRDS(data_paths['papers'])

counts_df

## # A tibble: 27 x 3
##    subject_area   full sample
##    <fct>         <dbl>  <dbl>
##  1 MEDI         0.159  0.114 
##  2 BIOC         0.127  0.0851
##  3 AGRI         0.131  0.0723
##  4 ENGI         0.0582 0.0620
##  5 PHYS         0.0632 0.0574
##  6 CHEM         0.0401 0.0531
##  7 ENVI         0.0529 0.0498
##  8 MATE         0.0384 0.0483
##  9 SOCI         0.0344 0.0446
## 10 COMP         0.0324 0.0380
## # … with 17 more rows
…
