Chapter 10 Joins | Data Science Methods for Cognitive Science
…
Figure 10.2: Linking fields in the tables of the nycflights13 dataset.

library(tidyverse)
library(nycflights13)
library(visdat)

flights

## # A tibble: 336,776 x 19
##     year month   day dep_time sched_dep_time dep_delay arr_time sched_arr_time arr_delay carrier
##    <int> <int> <int>    <int>          <int>     <dbl>    <int>          <int>     <dbl> <chr>  
##  1  2013     1     1      517            515         2      830            819        11 UA     
##  2  2013     1     1      533            529         4      850            830        20 UA     
##  3  2013     1     1      542            540         2      923            850        33 AA     
##  4  2013     1     1      544            545        -1     1004           1022       -18 B6     
##  5  2013     1     1      554            600        -6      812            837       -25 DL     
##  6  2013     1     1      554            558        -4      740            728        12 UA     
##  7  2013     1     1      555            600        -5      913            854        19 B6     
##  8  2013     1     1      557            600        -3      709            723       -14 EV     
##  9  2013     1     1      557            600        -3      838            846        -8 B6     
## 10  2013     1     1      558            600        -2      753            745         8 AA     
## # … with 336,766 more rows, and 9 more variables: flight <int>, tailnum <chr>, origin <chr>,
## #   dest <chr>, air_time <dbl>, distance <dbl>, hour <dbl>, minute <dbl>, time_hour <dttm>

airports

## # A tibble: 1,458 x 8
##    faa   name                             lat    lon   alt    tz dst   tzone              
##    <chr> <chr>                          <dbl>  <dbl> <dbl> <dbl> <chr> <chr>              
##  1 04G   Lansdowne Airport               41.1  -80.6  1044    -5 A     America/New_York   
##  2 06A   Moton Field Municipal Airport   32.5  -85.7   264    -6 A     America/Chicago    
##  3 06C   Schaumburg Regional             42.0  -88.1   801    -6 A     America/Chicago    
##  4 06N   Randall Airport                 41.4  -74.4   523    -5 A     America/New_York   
##  5 09J   Jekyll Island Airport           31.1  -81.4    11    -5 A     America/New_York   
##  6 0A9   Elizabethton Municipal Airport  36.4  -82.2  1593    -5 A     America/New_York   
##  7 0G6   Williams County Airport         41.5  -84.5   730    -5 A     America/New_York   
##  8 0G7   Finger Lakes Regional Airport   42.9  -76.8   492    -5 A     America/New_York   
##  9 0P2   Shoestring Aviation Airfield    39.8  -76.6  1000    -5 U     America/New_York   
## 10 0S9   Jefferson County Intl           48.1 -123.    108    -8 A     America/Los_Angeles
## # … with 1,448 more rows

weather

## # A tibble: 26,115 x 15
##    origin  year month   day  hour  temp  dewp humid wind_dir wind_speed wind_gust precip pressure
##    <chr>  <int> <int> <int> <int> <dbl> <dbl> <dbl>    <dbl>      <dbl>     <dbl>  <dbl>    <dbl>
##  1 EWR     2013     1     1     1  39.0  26.1  59.4      270      10.4         NA      0    1012 
##  2 EWR     2013     1     1     2  39.0  27.0  61.6      250       8.06        NA      0    1012.
##  3 EWR     2013     1     1     3  39.0  28.0  64.4      240      11.5         NA      0    1012.
##  4 EWR     2013     1     1     4  39.9  28.0  62.2      250      12.7         NA      0    1012.
##  5 EWR     2013     1     1     5  39.0  28.0  64.4      260      12.7         NA      0    1012.
##  6 EWR     2013     1     1     6  37.9  28.0  67.2      240      11.5         NA      0    1012.
##  7 EWR     2013     1     1     7  39.0  28.0  64.4      240      15.0         NA      0    1012.
##  8 EWR     2013     1     1     8  39.9  28.0  62.2      250      10.4         NA      0    1012.
##  9 EWR     2013     1     1     9  39.9  28.0  62.2      260      15.0         NA      0    1013.
## 10 EWR     2013     1     1    10  41    28.0  59.6      260      13.8         NA      0    1012.
## # … with 26,105 more rows, and 2 more variables: visib <dbl>, time_hour <dttm>
…
problems %>% 
    filter(is.na(carrier)) %>% 
    nrow()

## [1] 1455

problems %>% 
    filter(is.na(carrier)) %>% 
    select(year, month, day, carrier, origin, name, tzone)

## # A tibble: 1,455 x 7
##     year month   day carrier origin name                           tzone              
##    <int> <int> <int> <chr>   <chr>  <chr>                          <chr>              
##  1    NA    NA    NA <NA>    04G    Lansdowne Airport              America/New_York   
##  2    NA    NA    NA <NA>    06A    Moton Field Municipal Airport  America/Chicago    
##  3    NA    NA    NA <NA>    06C    Schaumburg Regional            America/Chicago    
##  4    NA    NA    NA <NA>    06N    Randall Airport                America/New_York   
##  5    NA    NA    NA <NA>    09J    Jekyll Island Airport          America/New_York   
##  6    NA    NA    NA <NA>    0A9    Elizabethton Municipal Airport America/New_York   
##  7    NA    NA    NA <NA>    0G6    Williams County Airport        America/New_York   
##  8    NA    NA    NA <NA>    0G7    Finger Lakes Regional Airport  America/New_York   
##  9    NA    NA    NA <NA>    0P2    Shoestring Aviation Airfield   America/New_York   
## 10    NA    NA    NA <NA>    0S9    Jefferson County Intl          America/Los_Angeles
## # … with 1,445 more rows

Manage this using anti_join() to determine which airports aren’t in origin.

anti_join(airports, flights, by = c('faa' = 'origin'))

## # A tibble: 1,455 x 8
##    faa   name                             lat    lon   alt    tz dst   tzone              
##    <chr> <chr>                          <dbl>  <dbl> <dbl> <dbl> <chr> <chr>              
##  1 04G   Lansdowne Airport               41.1  -80.6  1044    -5 A     America/New_York   
##  2 06A   Moton Field Municipal Airport   32.5  -85.7   264    -6 A     America/Chicago    
##  3 06C   Schaumburg Regional             42.0  -88.1   801    -6 A     America/Chicago    
##  4 06N   Randall Airport                 41.4  -74.4   523    -5 A     America/New_York   
##  5 09J   Jekyll Island Airport           31.1  -81.4    11    -5 A     America/New_York   
##  6 0A9   Elizabethton Municipal Airport  36.4  -82.2  1593    -5 A     America/New_York   
##  7 0G6   Williams County Airport         41.5  -84.5   730    -5 A     America/New_York   
##  8 0G7   Finger Lakes Regional Airport   42.9  -76.8   492    -5 A     America/New_York   
##  9 0P2   Shoestring Aviation Airfield    39.8  -76.6  1000    -5 U     America/New_York   
## 10 0S9   Jefferson County Intl           48.1 -123.    108    -8 A     America/Los_Angeles
## # … with 1,445 more rows
…
nrow(mult_problems)

## [1] 1008000

## `mult_problems` has almost 3x more rows than `flights`
nrow(mult_problems) / nrow(flights)

## [1] 2.993087

One way to figure out what happened is to check the names of the columns. The dplyr join functions add .x and .y when they encounter repeated column names.

mult_problems %>% 
    select(matches('.x'))

## # A tibble: 1,008,000 x 1
##    origin.x
##    <chr>   
##  1 EWR     
##  2 EWR     
##  3 EWR     
##  4 LGA     
##  5 LGA     
##  6 LGA     
##  7 JFK     
##  8 JFK     
##  9 JFK     
## 10 JFK     
## # … with 1,007,990 more rows
…
