Chapter 21 Some Data-Cleaning Tools | Data Science Methods for Cognitive Science
…
    select(-X1) %>% 
    ## Lengthen: 1 row per religion x income level
    pivot_longer(cols = `<$10k`:`Don't know/refused`, 
                 names_to = 'income', 
                 values_to = 'freq') %>% 
    ## Cleaning `income`: 
    ## - Make "Don't know/refused" into NA
    ## - Coerce to ordered factor
    mutate(income = if_else(str_detect(income, "Don't know"), 
                            NA_character_, 
                            income), 
           income = fct_inorder(income))
pew_clean

## # A tibble: 180 x 3
##    religion income     freq
##    <chr>    <fct>     <dbl>
##  1 Agnostic <$10k        27
##  2 Agnostic $10-20k      34
##  3 Agnostic $20-30k      60
##  4 Agnostic $30-40k      81
##  5 Agnostic $40-50k      76
##  6 Agnostic $50-75k     137
##  7 Agnostic $75-100k    122
##  8 Agnostic $100-150k   109
##  9 Agnostic >150k        84
## 10 Agnostic <NA>         96
## # … with 170 more rows
…
billboard_df

## # A tibble: 317 x 82
##       X1  year artist track time  date.entered   wk1   wk2   wk3   wk4   wk5   wk6   wk7   wk8   wk9
##    <dbl> <dbl> <chr>  <chr> <tim> <date>       <dbl> <dbl> <dbl> <dbl> <dbl> <dbl> <dbl> <dbl> <dbl>
##  1     1  2000 2 Pac  Baby… 04:22 2000-02-26      87    82    72    77    87    94    99    NA    NA
##  2     2  2000 2Ge+h… The … 03:15 2000-09-02      91    87    92    NA    NA    NA    NA    NA    NA
##  3     3  2000 3 Doo… Kryp… 03:53 2000-04-08      81    70    68    67    66    57    54    53    51
##  4     4  2000 3 Doo… Loser 04:24 2000-10-21      76    76    72    69    67    65    55    59    62
##  5     5  2000 504 B… Wobb… 03:35 2000-04-15      57    34    25    17    17    31    36    49    53
##  6     6  2000 98^0   Give… 03:24 2000-08-19      51    39    34    26    26    19     2     2     3
##  7     7  2000 A*Tee… Danc… 03:44 2000-07-08      97    97    96    95   100    NA    NA    NA    NA
##  8     8  2000 Aaliy… I Do… 04:15 2000-01-29      84    62    51    41    38    35    35    38    38
##  9     9  2000 Aaliy… Try … 04:03 2000-03-18      59    53    38    28    21    18    16    14    12
## 10    10  2000 Adams… Open… 05:30 2000-08-26      76    76    74    69    68    67    61    58    57
## # … with 307 more rows, and 67 more variables: wk10 <dbl>, wk11 <dbl>, wk12 <dbl>, wk13 <dbl>,
## #   wk14 <dbl>, wk15 <dbl>, wk16 <dbl>, wk17 <dbl>, wk18 <dbl>, wk19 <dbl>, wk20 <dbl>, wk21 <dbl>,
## #   wk22 <dbl>, wk23 <dbl>, wk24 <dbl>, wk25 <dbl>, wk26 <dbl>, wk27 <dbl>, wk28 <dbl>, wk29 <dbl>,
## #   wk30 <dbl>, wk31 <dbl>, wk32 <dbl>, wk33 <dbl>, wk34 <dbl>, wk35 <dbl>, wk36 <dbl>, wk37 <dbl>,
## #   wk38 <dbl>, wk39 <dbl>, wk40 <dbl>, wk41 <dbl>, wk42 <dbl>, wk43 <dbl>, wk44 <dbl>, wk45 <dbl>,
## #   wk46 <dbl>, wk47 <dbl>, wk48 <dbl>, wk49 <dbl>, wk50 <dbl>, wk51 <dbl>, wk52 <dbl>, wk53 <dbl>,
## #   wk54 <dbl>, wk55 <dbl>, wk56 <dbl>, wk57 <dbl>, wk58 <dbl>, wk59 <dbl>, wk60 <dbl>, wk61 <dbl>,
## #   wk62 <dbl>, wk63 <dbl>, wk64 <dbl>, wk65 <dbl>, wk66 <lgl>, wk67 <lgl>, wk68 <lgl>, wk69 <lgl>,
## #   wk70 <lgl>, wk71 <lgl>, wk72 <lgl>, wk73 <lgl>, wk74 <lgl>, wk75 <lgl>, wk76 <lgl>
…
    ## Pivot week down and remove NA rows
    pivot_longer(cols = starts_with('wk'), 
                 names_to = 'week', 
                 values_to = 'rank') %>% 
    filter(!is.na(rank)) %>% 
    ## Parse week and calculate date
    ## NB Base R can handle date arithmetic
    ## For month arithmetic see ?lubridate::`%m+%`
    mutate(week = parse_week(week), 
           date = date.entered + (week-1)*7) %>% 
    ## Clean columns
    select(year, artist, time, track, date, week, rank)
billboard_clean

## # A tibble: 5,307 x 7
##     year artist  time   track                   date        week  rank
##    <dbl> <chr>   <time> <chr>                   <date>     <int> <dbl>
##  1  2000 2 Pac   04:22  Baby Don't Cry          2000-02-26     1    87
##  2  2000 2 Pac   04:22  Baby Don't Cry          2000-03-04     2    82
##  3  2000 2 Pac   04:22  Baby Don't Cry          2000-03-11     3    72
##  4  2000 2 Pac   04:22  Baby Don't Cry          2000-03-18     4    77
##  5  2000 2 Pac   04:22  Baby Don't Cry          2000-03-25     5    87
##  6  2000 2 Pac   04:22  Baby Don't Cry          2000-04-01     6    94
##  7  2000 2 Pac   04:22  Baby Don't Cry          2000-04-08     7    99
##  8  2000 2Ge+her 03:15  The Hardest Part Of ... 2000-09-02     1    91
##  9  2000 2Ge+her 03:15  The Hardest Part Of ... 2000-09-09     2    87
## 10  2000 2Ge+her 03:15  The Hardest Part Of ... 2000-09-16     3    92
## # … with 5,297 more rows

NB. Base R includes methods for doing date arithmetic, eg,

as.Date('2020-04-30') + 1

## [1] "2020-05-01"

If you need month arithmetic, check out the lubridate package, and specifically %m+% and related operators.

count(billboard_clean, artist, track) %>% 
    arrange(desc(n))

## # A tibble: 317 x 3
##    artist           track                       n
##    <chr>            <chr>                   <int>
##  1 Creed            Higher                     57
##  2 Lonestar         Amazed                     55
##  3 3 Doors Down     Kryptonite                 53
##  4 Hill, Faith      Breathe                    53
##  5 Creed            With Arms Wide Open        47
##  6 Joe              I Wanna Know               44
##  7 Vertical Horizon Everything You Want        41
##  8 matchbox twenty  Bent                       39
##  9 Braxton, Toni    He Wasn't Man Enough       37
## 10 Nelly            (Hot S**t) Country G...    34
## # … with 307 more rows
…
    ## - Set order
    ## - Clean up the intermediate columns for upper and lower bounds
    separate(age, into = c('age_lower', 'age_upper'), 
             sep = -2) %>% 
    mutate(age = str_c(age_lower, '-', age_upper), 
           age = case_when(age == '-u' ~ NA_character_, 
                           age == '-65' ~ '65+', 
                           TRUE ~ age), 
           age = fct_inorder(age)) %>% 
    select(-age_lower, -age_upper) %>% 
    ## Put in order, with ID columns first and then the variable
    select(country, year, gender, age, cases)
tb_clean

## # A tibble: 3,216 x 5
##    country  year gender age   cases
##    <chr>   <dbl> <chr>  <fct> <dbl>
##  1 AD       2000 m      0-14      0
##  2 AD       2000 m      15-24     0
##  3 AD       2000 m      25-34     1
##  4 AD       2000 m      35-44     0
##  5 AD       2000 m      45-54     0
##  6 AD       2000 m      55-64     0
##  7 AD       2000 m      65+       0
##  8 AD       2000 m      <NA>     NA
##  9 AD       2000 f      0-14     NA
## 10 AD       2000 f      15-24    NA
## # … with 3,206 more rows
…
    ## Lengthen days
    pivot_longer(d1:d31, 
                 names_to = 'day', 
                 values_to = 'obs') %>% 
    ## Widen `element`
    pivot_wider(names_from = element, 
                values_from = obs) %>% 
    ## Fix the class of `day`
    mutate(day = str_remove(day, 'd'), 
           day = as.integer(day)) %>% 
    ## Check against the paper by filtering to non-missing rows
    filter(!is.na(tmax)|!is.na(tmin))
weather_clean

## # A tibble: 33 x 6
##    id       year month   day  tmax  tmin
##    <chr>   <dbl> <dbl> <int> <dbl> <dbl>
##  1 MX17004  2010     1    30  27.8  14.5
##  2 MX17004  2010     2     2  27.3  14.4
##  3 MX17004  2010     2     3  24.1  14.4
##  4 MX17004  2010     2    11  29.7  13.4
##  5 MX17004  2010     2    23  29.9  10.7
##  6 MX17004  2010     3     5  32.1  14.2
##  7 MX17004  2010     3    10  34.5  16.8
##  8 MX17004  2010     3    16  31.1  17.6
##  9 MX17004  2010     4    27  36.3  16.7
## 10 MX17004  2010     5    27  33.2  18.2
## # … with 23 more rows
…
