Chapter 11 Visual EDA | Data Science Methods for Cognitive Science
…
This is all you would need if the world were made of normal distributions

The world is not made of normal distributions (Lyon 2014)

We’ll illustrate this using The Datasaurus Dozen, a collection of 13 datasets (Matejka and Fitzmaurice n.d.)

Each dataset has two variables, x and y

library(tidyverse)
library(datasauRus)
dataf = datasaurus_dozen

dataf

## # A tibble: 1,846 x 3
##    dataset     x     y
##    <chr>   <dbl> <dbl>
##  1 dino     55.4  97.2
##  2 dino     51.5  96.0
##  3 dino     46.2  94.5
##  4 dino     42.8  91.4
##  5 dino     40.8  88.3
##  6 dino     38.7  84.9
##  7 dino     35.6  79.9
##  8 dino     33.1  77.6
##  9 dino     29.0  74.5
## 10 dino     26.2  71.4
## # … with 1,836 more rows
…
