…
- *Use `s3_dispatch()` to explain why the two models have the same output for `residuals()`.*

---

- `sloop::s3_methods_generic()` lists all class-specific versions of generics


```r
s3_methods_generic('print')
## # A tibble: 251 × 4
##    generic class   visible source             
##    <chr>   <chr>   <lgl>   <chr>              
##  1 print   acf     FALSE   registered S3method
##  2 print   AES     FALSE   registered S3method
##  3 print   anova   FALSE   registered S3method
##  4 print   aov     FALSE   registered S3method
##  5 print   aovlist FALSE   registered S3method
##  6 print   ar      FALSE   registered S3method
##  7 print   Arima   FALSE   registered S3method
##  8 print   arima0  FALSE   registered S3method
##  9 print   AsIs    TRUE    base               
## 10 print   aspell  FALSE   registered S3method
## # … with 241 more rows
```

- And similarly for all generics defined for a given class


```r
s3_methods_class('lm')
## # A tibble: 35 × 4
##    generic        class visible source             
##    <chr>          <chr> <lgl>   <chr>              
##  1 add1           lm    FALSE   registered S3method
##  2 alias          lm    FALSE   registered S3method
##  3 anova          lm    FALSE   registered S3method
##  4 case.names     lm    FALSE   registered S3method
##  5 confint        lm    TRUE    stats              
##  6 cooks.distance lm    FALSE   registered S3method
##  7 deviance       lm    FALSE   registered S3method
##  8 dfbeta         lm    FALSE   registered S3method
##  9 dfbetas        lm    FALSE   registered S3method
## 10 drop1          lm    FALSE   registered S3method
## # … with 25 more rows
```
…
