…
```r
covid_df |> 
    mutate(log_cases_new = log(cases_new)) |> 
    select(cases_new, log_cases_new) |> 
    filter(!is.finite(log_cases_new)) |> 
    count(cases_new) |> 
    arrange(desc(n))
## Warning in log(cases_new): NaNs produced
## mutate: new variable 'log_cases_new' (double) with 1,682 unique values and 1% NA
## select: dropped 18 variables (date, county, state, fips, cases, …)
## filter: removed 24,189 rows (73%), 9,133 rows remaining
## count: now 58 rows and 2 columns, ungrouped
## # A tibble: 58 × 2
##    cases_new     n
##        <dbl> <int>
##  1         0  8829
##  2        -1   113
##  3        NA    58
##  4        -2    27
##  5        -3    11
##  6        -6     9
##  7        -8     8
##  8       -17     4
##  9       -12     4
## 10        -5     4
## # … with 48 more rows
```
…
<img src="03-07-covid-eda_files/figure-html/unnamed-chunk-17-1.png" width="60%" style="display: block; margin: auto;" />

## Counties by maximum rate of new cases ##


```r
covid_df |> 
    group_by(county) |> 
    summarize(population = max(population),
              cases = max(cases_new_rate, na.rm = TRUE)) |> 
    arrange(desc(cases))
## group_by: one grouping variable (county)
## summarize: now 58 rows and 3 columns, ungrouped
## # A tibble: 58 × 3
##    county   population cases
##    <chr>         <dbl> <dbl>
##  1 Tulare       460477 2056.
##  2 Alpine         1146 1832.
##  3 Imperial     180216 1640.
##  4 Lassen        31185 1260.
##  5 Shasta       179085 1032.
##  6 Tehama        63373 1023.
##  7 Fresno       978130  950.
##  8 Glenn         27897  921.
##  9 Butte        227075  875.
## 10 Kings        150075  782.
## # … with 48 more rows
```
…
